<?xml version="1.0" encoding="utf-8"?>
<!-- Generator: Adobe Illustrator 16.0.5, SVG Export Plug-In . SVG Version: 6.00 Build 0)  -->
<!DOCTYPE svg PUBLIC "-//W3C//DTD SVG 1.1//EN" "http://www.w3.org/Graphics/SVG/1.1/DTD/svg11.dtd">
<svg version="1.1" id="jetbrains" xmlns="http://www.w3.org/2000/svg" xmlns:xlink="http://www.w3.org/1999/xlink" x="0px" y="0px"
	 width="612.627px" height="662.976px" viewBox="-0.116 64.267 612.627 662.976"
	 enable-background="new -0.116 64.267 612.627 662.976" xml:space="preserve">
<linearGradient id="SVGID_1_" gradientUnits="userSpaceOnUse" x1="32.6113" y1="120.3086" x2="111.0108" y2="72.9903" gradientTransform="matrix(5.0958 0 0 5.0958 -4.0948 65.231)">
	<stop  offset="0" style="stop-color:#FCEE39"/>
	<stop  offset="1" style="stop-color:#F37B3D"/>
</linearGradient>
<path fill="url(#SVGID_1_)" d="M604.356,430.142c4.586-4.075,7.134-9.682,7.644-16.307c0.51-13.249-9.172-23.95-22.421-24.969
	c-6.115-0.51-12.23,2.038-16.816,5.605L145.738,628.366c-9.682,4.077-18.345,11.211-23.95,20.893
	c-14.778,24.46-6.625,56.055,18.345,70.831c17.326,10.191,38.218,9.173,54.524-1.02c1.019-1.02,2.548-1.528,3.567-2.547
	l397.469-279.248C597.731,435.747,603.337,431.67,604.356,430.142L604.356,430.142z"/>
<linearGradient id="SVGID_2_" gradientUnits="userSpaceOnUse" x1="49.1816" y1="6.6938" x2="120.7388" y2="69.3411" gradientTransform="matrix(5.0958 0 0 5.0958 -4.0948 65.231)">
	<stop  offset="0" style="stop-color:#EF5A6B"/>
	<stop  offset="0.57" style="stop-color:#F26F4E"/>
	<stop  offset="1" style="stop-color:#F37B3D"/>
</linearGradient>
<path fill="url(#SVGID_2_)" d="M605.376,396L280.267,77.006c-7.134-7.644-17.326-12.739-29.046-12.739
	c-21.912,0-39.237,17.835-39.237,39.237c0,10.701,4.077,19.873,10.701,27.007c2.038,2.039,4.077,3.567,6.115,5.096l343.454,294.025
	c4.077,3.567,9.173,6.115,15.287,6.625c13.249,0.509,23.95-9.173,24.97-22.422C612.51,407.211,609.962,400.586,605.376,396z"/>
<linearGradient id="SVGID_3_" gradientUnits="userSpaceOnUse" x1="53.7275" y1="63.4814" x2="11.3185" y2="36.9964" gradientTransform="matrix(5.0958 0 0 5.0958 -4.0948 65.231)">
	<stop  offset="0" style="stop-color:#7C59A4"/>
	<stop  offset="0.385" style="stop-color:#AF4C92"/>
	<stop  offset="0.765" style="stop-color:#DC4183"/>
	<stop  offset="0.957" style="stop-color:#ED3D7D"/>
</linearGradient>
<path fill="url(#SVGID_3_)" d="M290.968,367.464c-0.51,0-200.773-157.968-204.85-160.516l-9.172-4.586
	c-29.555-11.21-62.168,4.077-73.379,33.632c-9.682,25.988,1.019,54.525,23.44,68.283c3.567,2.039,6.625,3.567,10.192,4.586
	c2.038,1.019,231.347,95.8,231.347,95.8c9.172,4.076,19.874,1.528,25.988-6.115C302.178,388.866,300.649,375.107,290.968,367.464
	L290.968,367.464z"/>
<linearGradient id="SVGID_4_" gradientUnits="userSpaceOnUse" x1="52.9668" y1="3.4917" x2="11.5637" y2="37.6868" gradientTransform="matrix(5.0958 0 0 5.0958 -4.0948 65.231)">
	<stop  offset="0" style="stop-color:#EF5A6B"/>
	<stop  offset="0.364" style="stop-color:#EE4E72"/>
	<stop  offset="1" style="stop-color:#ED3D7D"/>
</linearGradient>
<path fill="url(#SVGID_4_)" d="M251.221,64.267c-8.663,0-16.816,3.057-23.44,7.644L24.969,208.477
	c-0.51,0.509-1.019,0.509-1.019,1.019h-0.51c-8.663,6.115-15.797,15.287-19.874,25.988c-11.21,29.555,4.077,62.678,33.632,73.379
	c18.345,7.134,38.218,3.567,52.996-7.134c3.567-2.548,6.625-5.096,9.172-8.153L275.68,134.588
	c9.172-7.134,15.288-18.345,15.288-31.084C290.968,82.102,273.132,64.267,251.221,64.267z"/>
<g>
	<path d="M176.313,254.848h259.883v259.884H176.313V254.848z"/>
	<path fill="#FFFFFF" d="M198.734,465.812h97.329v16.307h-97.329V465.812L198.734,465.812z"/>
	<g>
		<path fill="#FFFFFF" d="M197.715,323.131l7.644-7.134c2.038,2.548,4.077,4.077,6.625,4.077c3.058,0,4.586-2.038,4.586-6.115
			v-27.008h11.72v27.008c0,5.096-1.528,9.172-4.076,11.72c-2.548,2.548-6.625,4.077-11.72,4.077
			C204.849,330.265,200.772,327.208,197.715,323.131z M230.837,287.46h34.142v9.682h-22.421v6.625h20.383v9.172h-20.383v6.624
			h22.931v10.192h-34.142L230.837,287.46z M280.267,297.652h-12.74V287.46h37.199v10.191h-12.739v32.104h-11.72V297.652z
			 M198.734,339.437h21.912c5.096,0,9.172,1.529,11.72,3.567c1.529,1.528,2.548,4.077,2.548,7.134c0,5.096-2.548,7.644-6.625,9.682
			c5.096,1.529,8.153,4.586,8.153,10.191c0,7.134-6.115,11.72-15.797,11.72h-21.912L198.734,339.437L198.734,339.437z
			 M223.194,352.686c0-2.548-2.038-3.567-5.096-3.567h-7.644v7.644h7.134C221.156,356.253,223.194,355.234,223.194,352.686z
			 M219.117,364.916h-9.172v7.644h9.172c3.567,0,5.605-1.529,5.605-4.077C224.722,365.935,222.685,364.916,219.117,364.916z
			 M238.481,339.437h19.873c6.625,0,10.701,1.529,13.759,4.586c2.548,2.548,3.567,5.605,3.567,9.682
			c0,6.625-3.567,10.701-8.663,13.249l10.191,14.778H263.96l-8.663-12.739h-5.096v12.739h-11.72V339.437L238.481,339.437z
			 M257.845,359.82c4.077,0,6.115-2.039,6.115-5.096c0-3.567-2.548-5.096-6.115-5.096h-7.644v10.191L257.845,359.82L257.845,359.82z
			"/>
		<path fill="#FFFFFF" d="M289.439,339.437h11.21l17.835,42.805h-12.739l-3.057-7.644h-16.307l-3.058,7.644h-12.229L289.439,339.437
			z M299.63,364.916l-4.586-11.72l-4.586,11.72H299.63z M320.014,339.437h11.721v42.295h-11.721V339.437z M334.791,339.437h10.701
			l17.325,22.421v-22.421h11.721v42.295h-10.191l-17.835-22.931v23.441h-11.721V339.437z M375.557,375.617l6.625-7.644
			c4.076,3.567,8.663,5.096,13.76,5.096c3.057,0,5.096-1.02,5.096-3.058c0-2.038-1.529-2.548-7.135-4.077
			c-9.172-2.038-15.797-4.586-15.797-13.249c0-7.644,6.114-13.758,16.307-13.758c7.134,0,12.739,2.038,17.326,5.605l-6.115,8.153
			c-4.077-2.548-8.153-4.077-11.721-4.077c-3.058,0-4.076,1.02-4.076,2.548c0,2.039,1.528,2.548,7.134,4.077
			c9.682,2.039,15.797,5.096,15.797,13.249c0,8.663-6.624,13.759-17.325,13.759C387.787,382.751,380.652,380.203,375.557,375.617
			L375.557,375.617z"/>
	</g>
</g>
</svg>
